2016-06-21 10:21:46,772 [myid:] - INFO  [main:QuorumPeerConfig@103] - Reading configuration from: /root/zookeeper-3.4.8/bin/../conf/zoo.cfg
2016-06-21 10:21:46,795 [myid:] - INFO  [main:DatadirCleanupManager@78] - autopurge.snapRetainCount set to 5
2016-06-21 10:21:46,795 [myid:] - INFO  [main:DatadirCleanupManager@79] - autopurge.purgeInterval set to 24
2016-06-21 10:21:46,808 [myid:] - WARN  [main:QuorumPeerMain@113] - Either no config or no quorum defined in config, running  in standalone mode
2016-06-21 10:21:46,808 [myid:] - INFO  [PurgeTask:DatadirCleanupManager$PurgeTask@138] - Purge task started.
2016-06-21 10:21:46,884 [myid:] - INFO  [PurgeTask:DatadirCleanupManager$PurgeTask@144] - Purge task completed.
2016-06-21 10:21:46,885 [myid:] - INFO  [main:QuorumPeerConfig@103] - Reading configuration from: /root/zookeeper-3.4.8/bin/../conf/zoo.cfg
2016-06-21 10:21:46,885 [myid:] - INFO  [main:ZooKeeperServerMain@95] - Starting server
2016-06-21 10:21:46,916 [myid:] - INFO  [main:Environment@100] - Server environment:zookeeper.version=3.4.8--1, built on 02/06/2016 03:18 GMT
2016-06-21 10:21:46,916 [myid:] - INFO  [main:Environment@100] - Server environment:host.name=nimbus
2016-06-21 10:21:46,916 [myid:] - INFO  [main:Environment@100] - Server environment:java.version=1.7.0_80
2016-06-21 10:21:46,916 [myid:] - INFO  [main:Environment@100] - Server environment:java.vendor=Oracle Corporation
2016-06-21 10:21:46,916 [myid:] - INFO  [main:Environment@100] - Server environment:java.home=/usr/lib/jvm/java-7-oracle/jre
2016-06-21 10:21:46,917 [myid:] - INFO  [main:Environment@100] - Server environment:java.class.path=/root/zookeeper-3.4.8/bin/../build/classes:/root/zookeeper-3.4.8/bin/../build/lib/*.jar:/root/zookeeper-3.4.8/bin/../lib/slf4j-log4j12-1.6.1.jar:/root/zookeeper-3.4.8/bin/../lib/slf4j-api-1.6.1.jar:/root/zookeeper-3.4.8/bin/../lib/netty-3.7.0.Final.jar:/root/zookeeper-3.4.8/bin/../lib/log4j-1.2.16.jar:/root/zookeeper-3.4.8/bin/../lib/jline-0.9.94.jar:/root/zookeeper-3.4.8/bin/../zookeeper-3.4.8.jar:/root/zookeeper-3.4.8/bin/../src/java/lib/*.jar:/root/zookeeper-3.4.8/bin/../conf:
2016-06-21 10:21:46,917 [myid:] - INFO  [main:Environment@100] - Server environment:java.library.path=/usr/java/packages/lib/amd64:/usr/lib64:/lib64:/lib:/usr/lib
2016-06-21 10:21:46,917 [myid:] - INFO  [main:Environment@100] - Server environment:java.io.tmpdir=/tmp
2016-06-21 10:21:46,919 [myid:] - INFO  [main:Environment@100] - Server environment:java.compiler=<NA>
2016-06-21 10:21:46,919 [myid:] - INFO  [main:Environment@100] - Server environment:os.name=Linux
2016-06-21 10:21:46,919 [myid:] - INFO  [main:Environment@100] - Server environment:os.arch=amd64
2016-06-21 10:21:46,919 [myid:] - INFO  [main:Environment@100] - Server environment:os.version=3.19.0-25-generic
2016-06-21 10:21:46,919 [myid:] - INFO  [main:Environment@100] - Server environment:user.name=root
2016-06-21 10:21:46,920 [myid:] - INFO  [main:Environment@100] - Server environment:user.home=/root
2016-06-21 10:21:46,920 [myid:] - INFO  [main:Environment@100] - Server environment:user.dir=/root/storm-projects/storm/examples/storm-starter
2016-06-21 10:21:46,942 [myid:] - INFO  [main:ZooKeeperServer@787] - tickTime set to 2000
2016-06-21 10:21:46,942 [myid:] - INFO  [main:ZooKeeperServer@796] - minSessionTimeout set to -1
2016-06-21 10:21:46,942 [myid:] - INFO  [main:ZooKeeperServer@805] - maxSessionTimeout set to -1
2016-06-21 10:21:47,019 [myid:] - INFO  [main:NIOServerCnxnFactory@89] - binding to port 0.0.0.0/0.0.0.0:2181
2016-06-21 10:22:16,000 [myid:] - INFO  [SessionTracker:ZooKeeperServer@355] - Expiring session 0x1556e09619e0018, timeout of 20000ms exceeded
2016-06-21 10:22:16,001 [myid:] - INFO  [SessionTracker:ZooKeeperServer@355] - Expiring session 0x1556e09619e0019, timeout of 20000ms exceeded
2016-06-21 10:22:16,001 [myid:] - INFO  [SessionTracker:ZooKeeperServer@355] - Expiring session 0x1556e09619e0015, timeout of 20000ms exceeded
2016-06-21 10:22:16,001 [myid:] - INFO  [SessionTracker:ZooKeeperServer@355] - Expiring session 0x1556e09619e0017, timeout of 20000ms exceeded
2016-06-21 10:22:16,001 [myid:] - INFO  [SessionTracker:ZooKeeperServer@355] - Expiring session 0x1556e09619e001b, timeout of 20000ms exceeded
2016-06-21 10:22:16,001 [myid:] - INFO  [SessionTracker:ZooKeeperServer@355] - Expiring session 0x1556e09619e0016, timeout of 20000ms exceeded
2016-06-21 10:22:16,002 [myid:] - INFO  [ProcessThread(sid:0 cport:2181)::PrepRequestProcessor@489] - Processed session termination for sessionid: 0x1556e09619e0018
2016-06-21 10:22:16,002 [myid:] - INFO  [ProcessThread(sid:0 cport:2181)::PrepRequestProcessor@489] - Processed session termination for sessionid: 0x1556e09619e0019
2016-06-21 10:22:16,002 [myid:] - INFO  [SyncThread:0:FileTxnLog@199] - Creating new log file: log.26167
2016-06-21 10:22:16,003 [myid:] - INFO  [ProcessThread(sid:0 cport:2181)::PrepRequestProcessor@489] - Processed session termination for sessionid: 0x1556e09619e0015
2016-06-21 10:22:16,003 [myid:] - INFO  [ProcessThread(sid:0 cport:2181)::PrepRequestProcessor@489] - Processed session termination for sessionid: 0x1556e09619e0017
2016-06-21 10:22:16,003 [myid:] - INFO  [ProcessThread(sid:0 cport:2181)::PrepRequestProcessor@489] - Processed session termination for sessionid: 0x1556e09619e001b
2016-06-21 10:22:16,003 [myid:] - INFO  [ProcessThread(sid:0 cport:2181)::PrepRequestProcessor@489] - Processed session termination for sessionid: 0x1556e09619e0016
2016-06-21 10:22:41,646 [myid:] - INFO  [NIOServerCxn.Factory:0.0.0.0/0.0.0.0:2181:NIOServerCnxnFactory@192] - Accepted socket connection from /127.0.0.1:55955
2016-06-21 10:22:41,694 [myid:] - INFO  [NIOServerCxn.Factory:0.0.0.0/0.0.0.0:2181:ZooKeeperServer@900] - Client attempting to establish new session at /127.0.0.1:55955
2016-06-21 10:22:41,702 [myid:] - INFO  [SyncThread:0:ZooKeeperServer@645] - Established session 0x155714cef810000 with negotiated timeout 20000 for client /127.0.0.1:55955
2016-06-21 10:22:41,778 [myid:] - INFO  [NIOServerCxn.Factory:0.0.0.0/0.0.0.0:2181:NIOServerCnxnFactory@192] - Accepted socket connection from /127.0.0.1:55956
2016-06-21 10:22:41,779 [myid:] - INFO  [NIOServerCxn.Factory:0.0.0.0/0.0.0.0:2181:ZooKeeperServer@900] - Client attempting to establish new session at /127.0.0.1:55956
2016-06-21 10:22:41,782 [myid:] - INFO  [SyncThread:0:ZooKeeperServer@645] - Established session 0x155714cef810001 with negotiated timeout 20000 for client /127.0.0.1:55956
2016-06-21 10:22:41,881 [myid:] - INFO  [NIOServerCxn.Factory:0.0.0.0/0.0.0.0:2181:NIOServerCnxnFactory@192] - Accepted socket connection from /127.0.0.1:55957
2016-06-21 10:22:41,882 [myid:] - INFO  [NIOServerCxn.Factory:0.0.0.0/0.0.0.0:2181:ZooKeeperServer@900] - Client attempting to establish new session at /127.0.0.1:55957
2016-06-21 10:22:41,886 [myid:] - INFO  [SyncThread:0:ZooKeeperServer@645] - Established session 0x155714cef810002 with negotiated timeout 20000 for client /127.0.0.1:55957
2016-06-21 10:22:41,984 [myid:] - INFO  [ProcessThread(sid:0 cport:2181)::PrepRequestProcessor@489] - Processed session termination for sessionid: 0x155714cef810002
2016-06-21 10:22:41,990 [myid:] - INFO  [NIOServerCxn.Factory:0.0.0.0/0.0.0.0:2181:NIOServerCnxn@1008] - Closed socket connection for client /127.0.0.1:55957 which had sessionid 0x155714cef810002
2016-06-21 10:22:42,006 [myid:] - INFO  [NIOServerCxn.Factory:0.0.0.0/0.0.0.0:2181:NIOServerCnxnFactory@192] - Accepted socket connection from /127.0.0.1:55958
2016-06-21 10:22:42,007 [myid:] - INFO  [NIOServerCxn.Factory:0.0.0.0/0.0.0.0:2181:ZooKeeperServer@900] - Client attempting to establish new session at /127.0.0.1:55958
2016-06-21 10:22:42,008 [myid:] - INFO  [SyncThread:0:ZooKeeperServer@645] - Established session 0x155714cef810003 with negotiated timeout 20000 for client /127.0.0.1:55958
2016-06-21 10:22:42,031 [myid:] - INFO  [NIOServerCxn.Factory:0.0.0.0/0.0.0.0:2181:NIOServerCnxnFactory@192] - Accepted socket connection from /127.0.0.1:55959
2016-06-21 10:22:42,031 [myid:] - INFO  [NIOServerCxn.Factory:0.0.0.0/0.0.0.0:2181:ZooKeeperServer@900] - Client attempting to establish new session at /127.0.0.1:55959
2016-06-21 10:22:42,033 [myid:] - INFO  [SyncThread:0:ZooKeeperServer@645] - Established session 0x155714cef810004 with negotiated timeout 20000 for client /127.0.0.1:55959
2016-06-21 10:22:42,414 [myid:] - INFO  [NIOServerCxn.Factory:0.0.0.0/0.0.0.0:2181:NIOServerCnxnFactory@192] - Accepted socket connection from /127.0.0.1:55960
2016-06-21 10:22:42,415 [myid:] - INFO  [NIOServerCxn.Factory:0.0.0.0/0.0.0.0:2181:ZooKeeperServer@900] - Client attempting to establish new session at /127.0.0.1:55960
2016-06-21 10:22:42,417 [myid:] - INFO  [SyncThread:0:ZooKeeperServer@645] - Established session 0x155714cef810005 with negotiated timeout 20000 for client /127.0.0.1:55960
2016-06-21 10:22:42,457 [myid:] - INFO  [ProcessThread(sid:0 cport:2181)::PrepRequestProcessor@489] - Processed session termination for sessionid: 0x155714cef810005
2016-06-21 10:22:42,462 [myid:] - INFO  [NIOServerCxn.Factory:0.0.0.0/0.0.0.0:2181:NIOServerCnxn@1008] - Closed socket connection for client /127.0.0.1:55960 which had sessionid 0x155714cef810005
2016-06-21 10:22:42,497 [myid:] - INFO  [NIOServerCxn.Factory:0.0.0.0/0.0.0.0:2181:NIOServerCnxnFactory@192] - Accepted socket connection from /127.0.0.1:55961
2016-06-21 10:22:42,497 [myid:] - INFO  [NIOServerCxn.Factory:0.0.0.0/0.0.0.0:2181:ZooKeeperServer@900] - Client attempting to establish new session at /127.0.0.1:55961
2016-06-21 10:22:42,498 [myid:] - INFO  [SyncThread:0:ZooKeeperServer@645] - Established session 0x155714cef810006 with negotiated timeout 20000 for client /127.0.0.1:55961
2016-06-21 10:22:42,542 [myid:] - INFO  [ProcessThread(sid:0 cport:2181)::PrepRequestProcessor@489] - Processed session termination for sessionid: 0x155714cef810006
2016-06-21 10:22:42,544 [myid:] - INFO  [NIOServerCxn.Factory:0.0.0.0/0.0.0.0:2181:NIOServerCnxn@1008] - Closed socket connection for client /127.0.0.1:55961 which had sessionid 0x155714cef810006
2016-06-21 10:22:42,619 [myid:] - INFO  [NIOServerCxn.Factory:0.0.0.0/0.0.0.0:2181:NIOServerCnxnFactory@192] - Accepted socket connection from /127.0.0.1:55962
2016-06-21 10:22:42,620 [myid:] - INFO  [NIOServerCxn.Factory:0.0.0.0/0.0.0.0:2181:ZooKeeperServer@900] - Client attempting to establish new session at /127.0.0.1:55962
2016-06-21 10:22:42,622 [myid:] - INFO  [SyncThread:0:ZooKeeperServer@645] - Established session 0x155714cef810007 with negotiated timeout 20000 for client /127.0.0.1:55962
2016-06-21 10:22:42,639 [myid:] - INFO  [ProcessThread(sid:0 cport:2181)::PrepRequestProcessor@489] - Processed session termination for sessionid: 0x155714cef810007
2016-06-21 10:22:42,641 [myid:] - INFO  [NIOServerCxn.Factory:0.0.0.0/0.0.0.0:2181:NIOServerCnxn@1008] - Closed socket connection for client /127.0.0.1:55962 which had sessionid 0x155714cef810007
2016-06-21 10:22:43,404 [myid:] - INFO  [NIOServerCxn.Factory:0.0.0.0/0.0.0.0:2181:NIOServerCnxnFactory@192] - Accepted socket connection from /127.0.0.1:55963
2016-06-21 10:22:43,413 [myid:] - INFO  [NIOServerCxn.Factory:0.0.0.0/0.0.0.0:2181:ZooKeeperServer@900] - Client attempting to establish new session at /127.0.0.1:55963
2016-06-21 10:22:43,422 [myid:] - INFO  [SyncThread:0:ZooKeeperServer@645] - Established session 0x155714cef810008 with negotiated timeout 20000 for client /127.0.0.1:55963
2016-06-21 10:22:43,455 [myid:] - INFO  [ProcessThread(sid:0 cport:2181)::PrepRequestProcessor@489] - Processed session termination for sessionid: 0x155714cef810008
2016-06-21 10:22:43,465 [myid:] - INFO  [NIOServerCxn.Factory:0.0.0.0/0.0.0.0:2181:NIOServerCnxn@1008] - Closed socket connection for client /127.0.0.1:55963 which had sessionid 0x155714cef810008
2016-06-21 10:22:43,481 [myid:] - INFO  [NIOServerCxn.Factory:0.0.0.0/0.0.0.0:2181:NIOServerCnxnFactory@192] - Accepted socket connection from /127.0.0.1:55965
2016-06-21 10:22:43,482 [myid:] - INFO  [NIOServerCxn.Factory:0.0.0.0/0.0.0.0:2181:ZooKeeperServer@900] - Client attempting to establish new session at /127.0.0.1:55965
2016-06-21 10:22:43,483 [myid:] - INFO  [SyncThread:0:ZooKeeperServer@645] - Established session 0x155714cef810009 with negotiated timeout 20000 for client /127.0.0.1:55965
2016-06-21 10:22:49,699 [myid:] - INFO  [NIOServerCxn.Factory:0.0.0.0/0.0.0.0:2181:NIOServerCnxnFactory@192] - Accepted socket connection from /127.0.0.1:55968
2016-06-21 10:22:49,703 [myid:] - INFO  [NIOServerCxn.Factory:0.0.0.0/0.0.0.0:2181:ZooKeeperServer@900] - Client attempting to establish new session at /127.0.0.1:55968
2016-06-21 10:22:49,705 [myid:] - INFO  [SyncThread:0:ZooKeeperServer@645] - Established session 0x155714cef81000a with negotiated timeout 20000 for client /127.0.0.1:55968
2016-06-21 10:22:49,724 [myid:] - INFO  [ProcessThread(sid:0 cport:2181)::PrepRequestProcessor@489] - Processed session termination for sessionid: 0x155714cef81000a
2016-06-21 10:22:49,726 [myid:] - INFO  [NIOServerCxn.Factory:0.0.0.0/0.0.0.0:2181:NIOServerCnxn@1008] - Closed socket connection for client /127.0.0.1:55968 which had sessionid 0x155714cef81000a
2016-06-21 10:22:49,737 [myid:] - INFO  [NIOServerCxn.Factory:0.0.0.0/0.0.0.0:2181:NIOServerCnxnFactory@192] - Accepted socket connection from /127.0.0.1:55969
2016-06-21 10:22:49,737 [myid:] - INFO  [NIOServerCxn.Factory:0.0.0.0/0.0.0.0:2181:ZooKeeperServer@900] - Client attempting to establish new session at /127.0.0.1:55969
2016-06-21 10:22:49,739 [myid:] - INFO  [SyncThread:0:ZooKeeperServer@645] - Established session 0x155714cef81000b with negotiated timeout 20000 for client /127.0.0.1:55969
2016-06-21 10:23:36,000 [myid:] - INFO  [SessionTracker:ZooKeeperServer@355] - Expiring session 0x155714cef810009, timeout of 20000ms exceeded
2016-06-21 10:24:05,722 [myid:] - INFO  [SessionTracker:ZooKeeperServer@355] - Expiring session 0x155714cef810000, timeout of 20000ms exceeded
2016-06-21 10:24:36,371 [myid:] - INFO  [SessionTracker:ZooKeeperServer@355] - Expiring session 0x155714cef810003, timeout of 20000ms exceeded
2016-06-21 10:24:36,652 [myid:] - INFO  [SessionTracker:ZooKeeperServer@355] - Expiring session 0x155714cef810001, timeout of 20000ms exceeded
2016-06-21 10:24:36,652 [myid:] - INFO  [SessionTracker:ZooKeeperServer@355] - Expiring session 0x155714cef81000b, timeout of 20000ms exceeded
2016-06-21 10:24:36,652 [myid:] - INFO  [SessionTracker:ZooKeeperServer@355] - Expiring session 0x155714cef810004, timeout of 20000ms exceeded
2016-06-21 10:24:36,652 [myid:] - INFO  [ProcessThread(sid:0 cport:2181)::PrepRequestProcessor@489] - Processed session termination for sessionid: 0x155714cef810009
2016-06-21 10:24:37,616 [myid:] - INFO  [ProcessThread(sid:0 cport:2181)::PrepRequestProcessor@489] - Processed session termination for sessionid: 0x155714cef810000
2016-06-21 10:24:38,142 [myid:] - INFO  [ProcessThread(sid:0 cport:2181)::PrepRequestProcessor@489] - Processed session termination for sessionid: 0x155714cef810003
2016-06-21 10:24:38,142 [myid:] - INFO  [ProcessThread(sid:0 cport:2181)::PrepRequestProcessor@489] - Processed session termination for sessionid: 0x155714cef810001
2016-06-21 10:24:38,158 [myid:] - INFO  [ProcessThread(sid:0 cport:2181)::PrepRequestProcessor@489] - Processed session termination for sessionid: 0x155714cef81000b
2016-06-21 10:24:38,158 [myid:] - INFO  [ProcessThread(sid:0 cport:2181)::PrepRequestProcessor@489] - Processed session termination for sessionid: 0x155714cef810004
2016-06-21 10:24:38,332 [myid:] - INFO  [SyncThread:0:NIOServerCnxn@1008] - Closed socket connection for client /127.0.0.1:55965 which had sessionid 0x155714cef810009
2016-06-21 10:24:39,117 [myid:] - INFO  [SyncThread:0:NIOServerCnxn@1008] - Closed socket connection for client /127.0.0.1:55955 which had sessionid 0x155714cef810000
2016-06-21 10:24:39,176 [myid:] - INFO  [SyncThread:0:NIOServerCnxn@1008] - Closed socket connection for client /127.0.0.1:55958 which had sessionid 0x155714cef810003
2016-06-21 10:24:39,176 [myid:] - INFO  [SyncThread:0:NIOServerCnxn@1008] - Closed socket connection for client /127.0.0.1:55956 which had sessionid 0x155714cef810001
2016-06-21 10:24:39,433 [myid:] - INFO  [SyncThread:0:NIOServerCnxn@1008] - Closed socket connection for client /127.0.0.1:55969 which had sessionid 0x155714cef81000b
2016-06-21 10:24:39,489 [myid:] - INFO  [SyncThread:0:NIOServerCnxn@1008] - Closed socket connection for client /127.0.0.1:55959 which had sessionid 0x155714cef810004
2016-06-21 10:24:41,136 [myid:] - WARN  [NIOServerCxn.Factory:0.0.0.0/0.0.0.0:2181:NIOServerCnxn@357] - caught end of stream exception
EndOfStreamException: Unable to read additional data from client sessionid 0x155714cef810004, likely client has closed socket
	at org.apache.zookeeper.server.NIOServerCnxn.doIO(NIOServerCnxn.java:230)
	at org.apache.zookeeper.server.NIOServerCnxnFactory.run(NIOServerCnxnFactory.java:203)
	at java.lang.Thread.run(Thread.java:745)
2016-06-21 10:24:44,515 [myid:] - WARN  [NIOServerCxn.Factory:0.0.0.0/0.0.0.0:2181:NIOServerCnxnFactory@213] - Ignoring unexpected runtime exception
java.nio.channels.CancelledKeyException
	at sun.nio.ch.SelectionKeyImpl.ensureValid(SelectionKeyImpl.java:73)
	at sun.nio.ch.SelectionKeyImpl.readyOps(SelectionKeyImpl.java:87)
	at org.apache.zookeeper.server.NIOServerCnxnFactory.run(NIOServerCnxnFactory.java:182)
	at java.lang.Thread.run(Thread.java:745)
2016-06-21 10:24:44,915 [myid:] - INFO  [NIOServerCxn.Factory:0.0.0.0/0.0.0.0:2181:NIOServerCnxnFactory@192] - Accepted socket connection from /127.0.0.1:56014
2016-06-21 10:24:44,934 [myid:] - INFO  [NIOServerCxn.Factory:0.0.0.0/0.0.0.0:2181:ZooKeeperServer@893] - Client attempting to renew session 0x155714cef810003 at /127.0.0.1:56014
2016-06-21 10:24:44,983 [myid:] - INFO  [NIOServerCxn.Factory:0.0.0.0/0.0.0.0:2181:ZooKeeperServer@638] - Invalid session 0x155714cef810003 for client /127.0.0.1:56014, probably expired
2016-06-21 10:24:45,026 [myid:] - INFO  [NIOServerCxn.Factory:0.0.0.0/0.0.0.0:2181:NIOServerCnxnFactory@192] - Accepted socket connection from /127.0.0.1:56015
2016-06-21 10:24:45,027 [myid:] - INFO  [NIOServerCxn.Factory:0.0.0.0/0.0.0.0:2181:ZooKeeperServer@893] - Client attempting to renew session 0x155714cef810000 at /127.0.0.1:56015
2016-06-21 10:24:45,037 [myid:] - INFO  [NIOServerCxn.Factory:0.0.0.0/0.0.0.0:2181:ZooKeeperServer@638] - Invalid session 0x155714cef810000 for client /127.0.0.1:56015, probably expired
2016-06-21 10:24:45,037 [myid:] - INFO  [NIOServerCxn.Factory:0.0.0.0/0.0.0.0:2181:NIOServerCnxnFactory@192] - Accepted socket connection from /127.0.0.1:56016
2016-06-21 10:24:45,096 [myid:] - INFO  [NIOServerCxn.Factory:0.0.0.0/0.0.0.0:2181:NIOServerCnxn@1008] - Closed socket connection for client /127.0.0.1:56014 which had sessionid 0x155714cef810003
2016-06-21 10:24:45,105 [myid:] - INFO  [NIOServerCxn.Factory:0.0.0.0/0.0.0.0:2181:ZooKeeperServer@893] - Client attempting to renew session 0x155714cef810001 at /127.0.0.1:56016
2016-06-21 10:24:45,105 [myid:] - INFO  [NIOServerCxn.Factory:0.0.0.0/0.0.0.0:2181:ZooKeeperServer@638] - Invalid session 0x155714cef810001 for client /127.0.0.1:56016, probably expired
2016-06-21 10:24:45,105 [myid:] - INFO  [NIOServerCxn.Factory:0.0.0.0/0.0.0.0:2181:NIOServerCnxn@1008] - Closed socket connection for client /127.0.0.1:56015 which had sessionid 0x155714cef810000
2016-06-21 10:24:45,115 [myid:] - INFO  [NIOServerCxn.Factory:0.0.0.0/0.0.0.0:2181:NIOServerCnxn@1008] - Closed socket connection for client /127.0.0.1:56016 which had sessionid 0x155714cef810001
2016-06-21 10:24:48,200 [myid:] - INFO  [NIOServerCxn.Factory:0.0.0.0/0.0.0.0:2181:NIOServerCnxnFactory@192] - Accepted socket connection from /127.0.0.1:56020
2016-06-21 10:24:50,993 [myid:] - INFO  [NIOServerCxn.Factory:0.0.0.0/0.0.0.0:2181:NIOServerCnxnFactory@192] - Accepted socket connection from /127.0.0.1:56022
2016-06-21 10:24:52,278 [myid:] - INFO  [NIOServerCxn.Factory:0.0.0.0/0.0.0.0:2181:ZooKeeperServer@893] - Client attempting to renew session 0x155714cef81000b at /127.0.0.1:56022
2016-06-21 10:24:52,349 [myid:] - INFO  [NIOServerCxn.Factory:0.0.0.0/0.0.0.0:2181:ZooKeeperServer@638] - Invalid session 0x155714cef81000b for client /127.0.0.1:56022, probably expired
2016-06-21 10:24:52,404 [myid:] - INFO  [NIOServerCxn.Factory:0.0.0.0/0.0.0.0:2181:NIOServerCnxn@1008] - Closed socket connection for client /127.0.0.1:56022 which had sessionid 0x155714cef81000b
2016-06-21 10:24:52,668 [myid:] - INFO  [NIOServerCxn.Factory:0.0.0.0/0.0.0.0:2181:ZooKeeperServer@893] - Client attempting to renew session 0x155714cef810004 at /127.0.0.1:56020
2016-06-21 10:24:52,749 [myid:] - INFO  [NIOServerCxn.Factory:0.0.0.0/0.0.0.0:2181:ZooKeeperServer@638] - Invalid session 0x155714cef810004 for client /127.0.0.1:56020, probably expired
2016-06-21 10:24:52,804 [myid:] - INFO  [NIOServerCxn.Factory:0.0.0.0/0.0.0.0:2181:NIOServerCnxnFactory@192] - Accepted socket connection from /127.0.0.1:56023
2016-06-21 10:24:52,815 [myid:] - INFO  [NIOServerCxn.Factory:0.0.0.0/0.0.0.0:2181:NIOServerCnxn@1008] - Closed socket connection for client /127.0.0.1:56020 which had sessionid 0x155714cef810004
2016-06-21 10:24:52,815 [myid:] - INFO  [NIOServerCxn.Factory:0.0.0.0/0.0.0.0:2181:NIOServerCnxnFactory@192] - Accepted socket connection from /127.0.0.1:56024
2016-06-21 10:24:52,837 [myid:] - INFO  [NIOServerCxn.Factory:0.0.0.0/0.0.0.0:2181:ZooKeeperServer@900] - Client attempting to establish new session at /127.0.0.1:56023
2016-06-21 10:24:52,838 [myid:] - INFO  [NIOServerCxn.Factory:0.0.0.0/0.0.0.0:2181:ZooKeeperServer@900] - Client attempting to establish new session at /127.0.0.1:56024
2016-06-21 10:24:52,875 [myid:] - INFO  [SyncThread:0:ZooKeeperServer@645] - Established session 0x155714cef81000c with negotiated timeout 20000 for client /127.0.0.1:56023
2016-06-21 10:24:52,876 [myid:] - INFO  [SyncThread:0:ZooKeeperServer@645] - Established session 0x155714cef81000d with negotiated timeout 20000 for client /127.0.0.1:56024
2016-06-21 10:24:52,914 [myid:] - INFO  [NIOServerCxn.Factory:0.0.0.0/0.0.0.0:2181:NIOServerCnxnFactory@192] - Accepted socket connection from /127.0.0.1:56025
2016-06-21 10:24:52,994 [myid:] - INFO  [NIOServerCxn.Factory:0.0.0.0/0.0.0.0:2181:ZooKeeperServer@900] - Client attempting to establish new session at /127.0.0.1:56025
2016-06-21 10:24:53,046 [myid:] - INFO  [SyncThread:0:ZooKeeperServer@645] - Established session 0x155714cef81000e with negotiated timeout 20000 for client /127.0.0.1:56025
2016-06-21 10:24:56,254 [myid:] - INFO  [ProcessThread(sid:0 cport:2181)::PrepRequestProcessor@651] - Got user-level KeeperException when processing sessionid:0x155714cef81000e type:create cxid:0x16 zxid:0x261a2 txntype:-1 reqpath:n/a Error Path:/storm/errors/word-count-1-1466430212 Error:KeeperErrorCode = NodeExists for /storm/errors/word-count-1-1466430212
2016-06-21 10:24:56,254 [myid:] - INFO  [ProcessThread(sid:0 cport:2181)::PrepRequestProcessor@651] - Got user-level KeeperException when processing sessionid:0x155714cef81000e type:create cxid:0x17 zxid:0x261a3 txntype:-1 reqpath:n/a Error Path:/storm/errors/word-count-1-1466430212 Error:KeeperErrorCode = NodeExists for /storm/errors/word-count-1-1466430212
2016-06-21 10:24:56,255 [myid:] - INFO  [ProcessThread(sid:0 cport:2181)::PrepRequestProcessor@651] - Got user-level KeeperException when processing sessionid:0x155714cef81000e type:create cxid:0x18 zxid:0x261a4 txntype:-1 reqpath:n/a Error Path:/storm/errors/word-count-1-1466430212 Error:KeeperErrorCode = NodeExists for /storm/errors/word-count-1-1466430212
2016-06-21 10:24:56,394 [myid:] - INFO  [ProcessThread(sid:0 cport:2181)::PrepRequestProcessor@489] - Processed session termination for sessionid: 0x155714cef81000d
2016-06-21 10:24:56,438 [myid:] - INFO  [NIOServerCxn.Factory:0.0.0.0/0.0.0.0:2181:NIOServerCnxn@1008] - Closed socket connection for client /127.0.0.1:56024 which had sessionid 0x155714cef81000d
2016-06-21 10:24:56,715 [myid:] - WARN  [NIOServerCxn.Factory:0.0.0.0/0.0.0.0:2181:NIOServerCnxn@362] - Exception causing close of session 0x155714cef81000e due to java.io.IOException: Connection reset by peer
2016-06-21 10:24:56,728 [myid:] - INFO  [NIOServerCxn.Factory:0.0.0.0/0.0.0.0:2181:NIOServerCnxn@1008] - Closed socket connection for client /127.0.0.1:56025 which had sessionid 0x155714cef81000e
2016-06-21 10:24:57,444 [myid:] - INFO  [NIOServerCxn.Factory:0.0.0.0/0.0.0.0:2181:NIOServerCnxnFactory@192] - Accepted socket connection from /127.0.0.1:56028
2016-06-21 10:24:57,468 [myid:] - INFO  [NIOServerCxn.Factory:0.0.0.0/0.0.0.0:2181:NIOServerCnxnFactory@192] - Accepted socket connection from /127.0.0.1:56029
2016-06-21 10:24:57,493 [myid:] - INFO  [NIOServerCxn.Factory:0.0.0.0/0.0.0.0:2181:ZooKeeperServer@900] - Client attempting to establish new session at /127.0.0.1:56028
2016-06-21 10:24:57,509 [myid:] - INFO  [NIOServerCxn.Factory:0.0.0.0/0.0.0.0:2181:ZooKeeperServer@900] - Client attempting to establish new session at /127.0.0.1:56029
2016-06-21 10:24:57,544 [myid:] - INFO  [SyncThread:0:ZooKeeperServer@645] - Established session 0x155714cef81000f with negotiated timeout 20000 for client /127.0.0.1:56028
2016-06-21 10:24:57,563 [myid:] - INFO  [SyncThread:0:ZooKeeperServer@645] - Established session 0x155714cef810010 with negotiated timeout 20000 for client /127.0.0.1:56029
2016-06-21 10:24:59,313 [myid:] - INFO  [NIOServerCxn.Factory:0.0.0.0/0.0.0.0:2181:NIOServerCnxnFactory@192] - Accepted socket connection from /127.0.0.1:56030
2016-06-21 10:25:00,494 [myid:] - INFO  [NIOServerCxn.Factory:0.0.0.0/0.0.0.0:2181:ZooKeeperServer@900] - Client attempting to establish new session at /127.0.0.1:56030
2016-06-21 10:25:00,567 [myid:] - INFO  [SyncThread:0:ZooKeeperServer@645] - Established session 0x155714cef810011 with negotiated timeout 20000 for client /127.0.0.1:56030
2016-06-21 10:25:02,465 [myid:] - INFO  [ProcessThread(sid:0 cport:2181)::PrepRequestProcessor@651] - Got user-level KeeperException when processing sessionid:0x155714cef810010 type:delete cxid:0x2 zxid:0x261ab txntype:-1 reqpath:n/a Error Path:/storm/leader-lock/_c_02f8190e-db8b-4dd3-a429-3e0fb84e46cd-latch-0000000003 Error:KeeperErrorCode = NoNode for /storm/leader-lock/_c_02f8190e-db8b-4dd3-a429-3e0fb84e46cd-latch-0000000003
2016-06-21 10:25:03,588 [myid:] - INFO  [NIOServerCxn.Factory:0.0.0.0/0.0.0.0:2181:NIOServerCnxnFactory@192] - Accepted socket connection from /127.0.0.1:56033
2016-06-21 10:25:04,527 [myid:] - INFO  [NIOServerCxn.Factory:0.0.0.0/0.0.0.0:2181:ZooKeeperServer@893] - Client attempting to renew session 0x155714cef810009 at /127.0.0.1:56033
2016-06-21 10:25:04,527 [myid:] - INFO  [NIOServerCxn.Factory:0.0.0.0/0.0.0.0:2181:ZooKeeperServer@638] - Invalid session 0x155714cef810009 for client /127.0.0.1:56033, probably expired
2016-06-21 10:25:04,550 [myid:] - INFO  [NIOServerCxn.Factory:0.0.0.0/0.0.0.0:2181:NIOServerCnxn@1008] - Closed socket connection for client /127.0.0.1:56033 which had sessionid 0x155714cef810009
2016-06-21 10:25:06,740 [myid:] - INFO  [NIOServerCxn.Factory:0.0.0.0/0.0.0.0:2181:NIOServerCnxnFactory@192] - Accepted socket connection from /127.0.0.1:56035
2016-06-21 10:25:06,747 [myid:] - INFO  [NIOServerCxn.Factory:0.0.0.0/0.0.0.0:2181:ZooKeeperServer@900] - Client attempting to establish new session at /127.0.0.1:56035
2016-06-21 10:25:06,846 [myid:] - INFO  [SyncThread:0:ZooKeeperServer@645] - Established session 0x155714cef810012 with negotiated timeout 20000 for client /127.0.0.1:56035
2016-06-21 10:25:16,000 [myid:] - INFO  [SessionTracker:ZooKeeperServer@355] - Expiring session 0x155714cef81000e, timeout of 20000ms exceeded
2016-06-21 10:25:16,001 [myid:] - INFO  [ProcessThread(sid:0 cport:2181)::PrepRequestProcessor@489] - Processed session termination for sessionid: 0x155714cef81000e
2016-06-21 10:25:18,256 [myid:] - INFO  [NIOServerCxn.Factory:0.0.0.0/0.0.0.0:2181:NIOServerCnxnFactory@192] - Accepted socket connection from /127.0.0.1:56046
2016-06-21 10:25:18,265 [myid:] - INFO  [NIOServerCxn.Factory:0.0.0.0/0.0.0.0:2181:ZooKeeperServer@900] - Client attempting to establish new session at /127.0.0.1:56046
2016-06-21 10:25:18,290 [myid:] - INFO  [SyncThread:0:ZooKeeperServer@645] - Established session 0x155714cef810013 with negotiated timeout 20000 for client /127.0.0.1:56046
2016-06-21 10:25:18,377 [myid:] - INFO  [ProcessThread(sid:0 cport:2181)::PrepRequestProcessor@489] - Processed session termination for sessionid: 0x155714cef810013
2016-06-21 10:25:18,467 [myid:] - INFO  [NIOServerCxn.Factory:0.0.0.0/0.0.0.0:2181:NIOServerCnxn@1008] - Closed socket connection for client /127.0.0.1:56046 which had sessionid 0x155714cef810013
2016-06-21 10:25:18,467 [myid:] - INFO  [NIOServerCxn.Factory:0.0.0.0/0.0.0.0:2181:NIOServerCnxnFactory@192] - Accepted socket connection from /127.0.0.1:56047
2016-06-21 10:25:18,477 [myid:] - INFO  [NIOServerCxn.Factory:0.0.0.0/0.0.0.0:2181:ZooKeeperServer@900] - Client attempting to establish new session at /127.0.0.1:56047
2016-06-21 10:25:18,542 [myid:] - INFO  [SyncThread:0:ZooKeeperServer@645] - Established session 0x155714cef810014 with negotiated timeout 20000 for client /127.0.0.1:56047
2016-06-21 10:26:00,541 [myid:] - INFO  [SessionTracker:ZooKeeperServer@355] - Expiring session 0x155714cef810010, timeout of 20000ms exceeded
2016-06-21 10:26:19,610 [myid:] - INFO  [SessionTracker:ZooKeeperServer@355] - Expiring session 0x155714cef810011, timeout of 20000ms exceeded
2016-06-21 10:26:19,611 [myid:] - INFO  [SessionTracker:ZooKeeperServer@355] - Expiring session 0x155714cef810014, timeout of 20000ms exceeded
2016-06-21 10:26:19,611 [myid:] - INFO  [SessionTracker:ZooKeeperServer@355] - Expiring session 0x155714cef81000c, timeout of 20000ms exceeded
2016-06-21 10:26:19,611 [myid:] - INFO  [SessionTracker:ZooKeeperServer@355] - Expiring session 0x155714cef81000f, timeout of 20000ms exceeded
2016-06-21 10:26:19,611 [myid:] - INFO  [SessionTracker:ZooKeeperServer@355] - Expiring session 0x155714cef810012, timeout of 20000ms exceeded
2016-06-21 10:26:27,990 [myid:] - WARN  [NIOServerCxn.Factory:0.0.0.0/0.0.0.0:2181:NIOServerCnxn@357] - caught end of stream exception
EndOfStreamException: Unable to read additional data from client sessionid 0x155714cef810012, likely client has closed socket
	at org.apache.zookeeper.server.NIOServerCnxn.doIO(NIOServerCnxn.java:230)
	at org.apache.zookeeper.server.NIOServerCnxnFactory.run(NIOServerCnxnFactory.java:203)
	at java.lang.Thread.run(Thread.java:745)
2016-06-21 10:26:41,412 [myid:] - INFO  [ProcessThread(sid:0 cport:2181)::PrepRequestProcessor@489] - Processed session termination for sessionid: 0x155714cef810010
2016-06-21 10:26:47,779 [myid:] - INFO  [NIOServerCxn.Factory:0.0.0.0/0.0.0.0:2181:NIOServerCnxn@1008] - Closed socket connection for client /127.0.0.1:56035 which had sessionid 0x155714cef810012
2016-06-21 10:26:50,287 [myid:] - INFO  [ProcessThread(sid:0 cport:2181)::PrepRequestProcessor@489] - Processed session termination for sessionid: 0x155714cef810011
2016-06-21 10:26:54,097 [myid:] - WARN  [SyncThread:0:FileTxnLog@334] - fsync-ing the write ahead log in SyncThread:0 took 1207ms which will adversely effect operation latency. See the ZooKeeper troubleshooting guide
2016-06-21 10:27:01,732 [myid:] - INFO  [ProcessThread(sid:0 cport:2181)::PrepRequestProcessor@489] - Processed session termination for sessionid: 0x155714cef810014
2016-06-21 10:26:58,486 [myid:] - INFO  [NIOServerCxn.Factory:0.0.0.0/0.0.0.0:2181:NIOServerCnxnFactory@192] - Accepted socket connection from /127.0.0.1:56071
2016-06-21 10:27:06,755 [myid:] - INFO  [ProcessThread(sid:0 cport:2181)::PrepRequestProcessor@489] - Processed session termination for sessionid: 0x155714cef81000c
2016-06-21 10:27:04,312 [myid:] - INFO  [SyncThread:0:NIOServerCnxn@1008] - Closed socket connection for client /127.0.0.1:56029 which had sessionid 0x155714cef810010
2016-06-21 10:27:11,510 [myid:] - INFO  [ProcessThread(sid:0 cport:2181)::PrepRequestProcessor@489] - Processed session termination for sessionid: 0x155714cef81000f
2016-06-21 10:27:17,038 [myid:] - WARN  [SyncThread:0:FileTxnLog@334] - fsync-ing the write ahead log in SyncThread:0 took 4353ms which will adversely effect operation latency. See the ZooKeeper troubleshooting guide
2016-06-21 10:27:17,680 [myid:] - INFO  [ProcessThread(sid:0 cport:2181)::PrepRequestProcessor@489] - Processed session termination for sessionid: 0x155714cef810012
2016-06-21 10:27:17,172 [myid:] - INFO  [NIOServerCxn.Factory:0.0.0.0/0.0.0.0:2181:ZooKeeperServer@893] - Client attempting to renew session 0x155714cef810012 at /127.0.0.1:56071
2016-06-21 10:27:18,799 [myid:] - INFO  [SyncThread:0:NIOServerCnxn@1008] - Closed socket connection for client /127.0.0.1:56030 which had sessionid 0x155714cef810011
2016-06-21 10:27:20,382 [myid:] - INFO  [NIOServerCxn.Factory:0.0.0.0/0.0.0.0:2181:ZooKeeperServer@638] - Invalid session 0x155714cef810012 for client /127.0.0.1:56071, probably expired
2016-06-21 10:27:21,025 [myid:] - INFO  [SyncThread:0:NIOServerCnxn@1008] - Closed socket connection for client /127.0.0.1:56047 which had sessionid 0x155714cef810014
2016-06-21 10:27:21,052 [myid:] - INFO  [SyncThread:0:NIOServerCnxn@1008] - Closed socket connection for client /127.0.0.1:56023 which had sessionid 0x155714cef81000c
2016-06-21 10:27:21,053 [myid:] - INFO  [SyncThread:0:NIOServerCnxn@1008] - Closed socket connection for client /127.0.0.1:56028 which had sessionid 0x155714cef81000f
2016-06-21 10:27:21,539 [myid:] - INFO  [NIOServerCxn.Factory:0.0.0.0/0.0.0.0:2181:NIOServerCnxn@1008] - Closed socket connection for client /127.0.0.1:56071 which had sessionid 0x155714cef810012
2016-06-21 10:27:52,917 [myid:] - INFO  [NIOServerCxn.Factory:0.0.0.0/0.0.0.0:2181:NIOServerCnxnFactory@192] - Accepted socket connection from /127.0.0.1:56096
2016-06-21 10:27:53,674 [myid:] - INFO  [NIOServerCxn.Factory:0.0.0.0/0.0.0.0:2181:ZooKeeperServer@893] - Client attempting to renew session 0x155714cef810014 at /127.0.0.1:56096
2016-06-21 10:27:53,675 [myid:] - INFO  [NIOServerCxn.Factory:0.0.0.0/0.0.0.0:2181:ZooKeeperServer@638] - Invalid session 0x155714cef810014 for client /127.0.0.1:56096, probably expired
2016-06-21 10:27:53,675 [myid:] - INFO  [NIOServerCxn.Factory:0.0.0.0/0.0.0.0:2181:NIOServerCnxn@1008] - Closed socket connection for client /127.0.0.1:56096 which had sessionid 0x155714cef810014
2016-06-21 10:27:53,858 [myid:] - INFO  [NIOServerCxn.Factory:0.0.0.0/0.0.0.0:2181:NIOServerCnxnFactory@192] - Accepted socket connection from /127.0.0.1:56097
2016-06-21 10:27:53,935 [myid:] - INFO  [NIOServerCxn.Factory:0.0.0.0/0.0.0.0:2181:NIOServerCnxnFactory@192] - Accepted socket connection from /127.0.0.1:56098
2016-06-21 10:27:53,970 [myid:] - INFO  [NIOServerCxn.Factory:0.0.0.0/0.0.0.0:2181:NIOServerCnxnFactory@192] - Accepted socket connection from /127.0.0.1:56099
2016-06-21 10:27:54,017 [myid:] - INFO  [NIOServerCxn.Factory:0.0.0.0/0.0.0.0:2181:ZooKeeperServer@893] - Client attempting to renew session 0x155714cef810011 at /127.0.0.1:56098
2016-06-21 10:27:54,110 [myid:] - INFO  [NIOServerCxn.Factory:0.0.0.0/0.0.0.0:2181:ZooKeeperServer@638] - Invalid session 0x155714cef810011 for client /127.0.0.1:56098, probably expired
2016-06-21 10:27:54,110 [myid:] - INFO  [NIOServerCxn.Factory:0.0.0.0/0.0.0.0:2181:ZooKeeperServer@893] - Client attempting to renew session 0x155714cef81000c at /127.0.0.1:56097
2016-06-21 10:27:54,118 [myid:] - INFO  [NIOServerCxn.Factory:0.0.0.0/0.0.0.0:2181:ZooKeeperServer@638] - Invalid session 0x155714cef81000c for client /127.0.0.1:56097, probably expired
2016-06-21 10:27:54,119 [myid:] - INFO  [NIOServerCxn.Factory:0.0.0.0/0.0.0.0:2181:NIOServerCnxn@1008] - Closed socket connection for client /127.0.0.1:56097 which had sessionid 0x155714cef81000c
2016-06-21 10:27:54,119 [myid:] - INFO  [NIOServerCxn.Factory:0.0.0.0/0.0.0.0:2181:NIOServerCnxn@1008] - Closed socket connection for client /127.0.0.1:56098 which had sessionid 0x155714cef810011
2016-06-21 10:27:54,127 [myid:] - INFO  [NIOServerCxn.Factory:0.0.0.0/0.0.0.0:2181:ZooKeeperServer@893] - Client attempting to renew session 0x155714cef81000f at /127.0.0.1:56099
2016-06-21 10:27:54,127 [myid:] - INFO  [NIOServerCxn.Factory:0.0.0.0/0.0.0.0:2181:ZooKeeperServer@638] - Invalid session 0x155714cef81000f for client /127.0.0.1:56099, probably expired
2016-06-21 10:27:54,128 [myid:] - INFO  [NIOServerCxn.Factory:0.0.0.0/0.0.0.0:2181:NIOServerCnxn@1008] - Closed socket connection for client /127.0.0.1:56099 which had sessionid 0x155714cef81000f
2016-06-21 10:27:54,187 [myid:] - INFO  [NIOServerCxn.Factory:0.0.0.0/0.0.0.0:2181:NIOServerCnxnFactory@192] - Accepted socket connection from /127.0.0.1:56100
2016-06-21 10:27:54,230 [myid:] - INFO  [NIOServerCxn.Factory:0.0.0.0/0.0.0.0:2181:ZooKeeperServer@893] - Client attempting to renew session 0x155714cef810010 at /127.0.0.1:56100
2016-06-21 10:27:54,230 [myid:] - INFO  [NIOServerCxn.Factory:0.0.0.0/0.0.0.0:2181:ZooKeeperServer@638] - Invalid session 0x155714cef810010 for client /127.0.0.1:56100, probably expired
2016-06-21 10:27:54,241 [myid:] - INFO  [NIOServerCxn.Factory:0.0.0.0/0.0.0.0:2181:NIOServerCnxn@1008] - Closed socket connection for client /127.0.0.1:56100 which had sessionid 0x155714cef810010
2016-06-21 10:27:55,561 [myid:] - INFO  [NIOServerCxn.Factory:0.0.0.0/0.0.0.0:2181:NIOServerCnxnFactory@192] - Accepted socket connection from /127.0.0.1:56101
2016-06-21 10:27:55,599 [myid:] - INFO  [NIOServerCxn.Factory:0.0.0.0/0.0.0.0:2181:NIOServerCnxnFactory@192] - Accepted socket connection from /127.0.0.1:56102
2016-06-21 10:27:55,619 [myid:] - INFO  [NIOServerCxn.Factory:0.0.0.0/0.0.0.0:2181:ZooKeeperServer@900] - Client attempting to establish new session at /127.0.0.1:56102
2016-06-21 10:27:55,631 [myid:] - INFO  [NIOServerCxn.Factory:0.0.0.0/0.0.0.0:2181:NIOServerCnxnFactory@192] - Accepted socket connection from /127.0.0.1:56103
2016-06-21 10:27:55,687 [myid:] - INFO  [NIOServerCxn.Factory:0.0.0.0/0.0.0.0:2181:ZooKeeperServer@900] - Client attempting to establish new session at /127.0.0.1:56101
2016-06-21 10:27:55,700 [myid:] - INFO  [NIOServerCxn.Factory:0.0.0.0/0.0.0.0:2181:ZooKeeperServer@900] - Client attempting to establish new session at /127.0.0.1:56103
2016-06-21 10:27:55,700 [myid:] - INFO  [SyncThread:0:ZooKeeperServer@645] - Established session 0x155714cef810015 with negotiated timeout 20000 for client /127.0.0.1:56102
2016-06-21 10:27:55,725 [myid:] - INFO  [NIOServerCxn.Factory:0.0.0.0/0.0.0.0:2181:NIOServerCnxnFactory@192] - Accepted socket connection from /127.0.0.1:56104
2016-06-21 10:27:55,726 [myid:] - INFO  [SyncThread:0:ZooKeeperServer@645] - Established session 0x155714cef810016 with negotiated timeout 20000 for client /127.0.0.1:56101
2016-06-21 10:27:55,726 [myid:] - INFO  [SyncThread:0:ZooKeeperServer@645] - Established session 0x155714cef810017 with negotiated timeout 20000 for client /127.0.0.1:56103
2016-06-21 10:27:55,750 [myid:] - INFO  [NIOServerCxn.Factory:0.0.0.0/0.0.0.0:2181:ZooKeeperServer@900] - Client attempting to establish new session at /127.0.0.1:56104
2016-06-21 10:27:55,784 [myid:] - INFO  [ProcessThread(sid:0 cport:2181)::PrepRequestProcessor@651] - Got user-level KeeperException when processing sessionid:0x155714cef810016 type:delete cxid:0x1 zxid:0x261cd txntype:-1 reqpath:n/a Error Path:/storm/leader-lock/_c_6f049ad8-716f-44ae-8c0a-c9998b222ecf-latch-0000000004 Error:KeeperErrorCode = NoNode for /storm/leader-lock/_c_6f049ad8-716f-44ae-8c0a-c9998b222ecf-latch-0000000004
2016-06-21 10:27:55,923 [myid:] - INFO  [SyncThread:0:ZooKeeperServer@645] - Established session 0x155714cef810018 with negotiated timeout 20000 for client /127.0.0.1:56104
2016-06-21 10:27:56,904 [myid:] - INFO  [NIOServerCxn.Factory:0.0.0.0/0.0.0.0:2181:NIOServerCnxnFactory@192] - Accepted socket connection from /127.0.0.1:56106
2016-06-21 10:27:56,919 [myid:] - INFO  [NIOServerCxn.Factory:0.0.0.0/0.0.0.0:2181:ZooKeeperServer@900] - Client attempting to establish new session at /127.0.0.1:56106
2016-06-21 10:27:57,017 [myid:] - INFO  [SyncThread:0:ZooKeeperServer@645] - Established session 0x155714cef810019 with negotiated timeout 20000 for client /127.0.0.1:56106
2016-06-21 10:28:01,047 [myid:] - INFO  [ProcessThread(sid:0 cport:2181)::PrepRequestProcessor@651] - Got user-level KeeperException when processing sessionid:0x155714cef810019 type:create cxid:0x1c zxid:0x261d6 txntype:-1 reqpath:n/a Error Path:/storm/errors/word-count-1-1466430212/split-last-error Error:KeeperErrorCode = NodeExists for /storm/errors/word-count-1-1466430212/split-last-error
2016-06-21 10:28:01,051 [myid:] - INFO  [ProcessThread(sid:0 cport:2181)::PrepRequestProcessor@651] - Got user-level KeeperException when processing sessionid:0x155714cef810019 type:create cxid:0x1d zxid:0x261d7 txntype:-1 reqpath:n/a Error Path:/storm/errors/word-count-1-1466430212/split-last-error Error:KeeperErrorCode = NodeExists for /storm/errors/word-count-1-1466430212/split-last-error
2016-06-21 10:28:03,093 [myid:] - WARN  [NIOServerCxn.Factory:0.0.0.0/0.0.0.0:2181:NIOServerCnxn@357] - caught end of stream exception
EndOfStreamException: Unable to read additional data from client sessionid 0x155714cef810019, likely client has closed socket
	at org.apache.zookeeper.server.NIOServerCnxn.doIO(NIOServerCnxn.java:230)
	at org.apache.zookeeper.server.NIOServerCnxnFactory.run(NIOServerCnxnFactory.java:203)
	at java.lang.Thread.run(Thread.java:745)
2016-06-21 10:28:03,109 [myid:] - INFO  [NIOServerCxn.Factory:0.0.0.0/0.0.0.0:2181:NIOServerCnxn@1008] - Closed socket connection for client /127.0.0.1:56106 which had sessionid 0x155714cef810019
2016-06-21 10:28:22,000 [myid:] - INFO  [SessionTracker:ZooKeeperServer@355] - Expiring session 0x155714cef810019, timeout of 20000ms exceeded
2016-06-21 10:28:22,001 [myid:] - INFO  [ProcessThread(sid:0 cport:2181)::PrepRequestProcessor@489] - Processed session termination for sessionid: 0x155714cef810019
2016-06-21 11:38:57,581 [myid:] - INFO  [ProcessThread(sid:0 cport:2181)::PrepRequestProcessor@651] - Got user-level KeeperException when processing sessionid:0x155714cef810017 type:delete cxid:0x1e zxid:0x261e5 txntype:-1 reqpath:n/a Error Path:/storm/workerbeats/word-count-1-1466430212 Error:KeeperErrorCode = Directory not empty for /storm/workerbeats/word-count-1-1466430212
2016-06-21 11:38:57,706 [myid:] - INFO  [ProcessThread(sid:0 cport:2181)::PrepRequestProcessor@651] - Got user-level KeeperException when processing sessionid:0x155714cef810017 type:delete cxid:0x24 zxid:0x261e8 txntype:-1 reqpath:n/a Error Path:/storm/errors/word-count-1-1466430212 Error:KeeperErrorCode = Directory not empty for /storm/errors/word-count-1-1466430212
2016-06-21 11:43:30,733 [myid:] - INFO  [NIOServerCxn.Factory:0.0.0.0/0.0.0.0:2181:NIOServerCnxnFactory@192] - Accepted socket connection from /127.0.0.1:57851
2016-06-21 11:43:30,735 [myid:] - INFO  [NIOServerCxn.Factory:0.0.0.0/0.0.0.0:2181:ZooKeeperServer@900] - Client attempting to establish new session at /127.0.0.1:57851
2016-06-21 11:43:30,768 [myid:] - INFO  [SyncThread:0:ZooKeeperServer@645] - Established session 0x155714cef81001a with negotiated timeout 20000 for client /127.0.0.1:57851
2016-06-21 11:43:30,784 [myid:] - INFO  [ProcessThread(sid:0 cport:2181)::PrepRequestProcessor@489] - Processed session termination for sessionid: 0x155714cef81001a
2016-06-21 11:43:30,798 [myid:] - INFO  [NIOServerCxn.Factory:0.0.0.0/0.0.0.0:2181:NIOServerCnxn@1008] - Closed socket connection for client /127.0.0.1:57851 which had sessionid 0x155714cef81001a
2016-06-21 11:43:30,818 [myid:] - INFO  [NIOServerCxn.Factory:0.0.0.0/0.0.0.0:2181:NIOServerCnxnFactory@192] - Accepted socket connection from /127.0.0.1:57852
2016-06-21 11:43:30,818 [myid:] - INFO  [NIOServerCxn.Factory:0.0.0.0/0.0.0.0:2181:ZooKeeperServer@900] - Client attempting to establish new session at /127.0.0.1:57852
2016-06-21 11:43:30,820 [myid:] - INFO  [SyncThread:0:ZooKeeperServer@645] - Established session 0x155714cef81001b with negotiated timeout 20000 for client /127.0.0.1:57852
2016-06-21 11:43:30,833 [myid:] - INFO  [ProcessThread(sid:0 cport:2181)::PrepRequestProcessor@489] - Processed session termination for sessionid: 0x155714cef81001b
2016-06-21 11:43:30,835 [myid:] - INFO  [NIOServerCxn.Factory:0.0.0.0/0.0.0.0:2181:NIOServerCnxn@1008] - Closed socket connection for client /127.0.0.1:57852 which had sessionid 0x155714cef81001b
2016-06-21 11:43:30,876 [myid:] - INFO  [NIOServerCxn.Factory:0.0.0.0/0.0.0.0:2181:NIOServerCnxnFactory@192] - Accepted socket connection from /127.0.0.1:57853
2016-06-21 11:43:30,876 [myid:] - INFO  [NIOServerCxn.Factory:0.0.0.0/0.0.0.0:2181:ZooKeeperServer@900] - Client attempting to establish new session at /127.0.0.1:57853
2016-06-21 11:43:30,879 [myid:] - INFO  [SyncThread:0:ZooKeeperServer@645] - Established session 0x155714cef81001c with negotiated timeout 20000 for client /127.0.0.1:57853
2016-06-21 11:43:30,888 [myid:] - INFO  [ProcessThread(sid:0 cport:2181)::PrepRequestProcessor@489] - Processed session termination for sessionid: 0x155714cef81001c
2016-06-21 11:43:30,891 [myid:] - INFO  [NIOServerCxn.Factory:0.0.0.0/0.0.0.0:2181:NIOServerCnxn@1008] - Closed socket connection for client /127.0.0.1:57853 which had sessionid 0x155714cef81001c
2016-06-21 11:49:18,430 [myid:] - INFO  [ProcessThread(sid:0 cport:2181)::PrepRequestProcessor@651] - Got user-level KeeperException when processing sessionid:0x155714cef810017 type:delete cxid:0x64 zxid:0x26209 txntype:-1 reqpath:n/a Error Path:/storm/blobstore/word-count-1-1466489609-stormcode.ser Error:KeeperErrorCode = Directory not empty for /storm/blobstore/word-count-1-1466489609-stormcode.ser
2016-06-21 11:49:18,442 [myid:] - INFO  [ProcessThread(sid:0 cport:2181)::PrepRequestProcessor@651] - Got user-level KeeperException when processing sessionid:0x155714cef810017 type:delete cxid:0x6c zxid:0x2620d txntype:-1 reqpath:n/a Error Path:/storm/blobstore/word-count-1-1466489609-stormjar.jar Error:KeeperErrorCode = Directory not empty for /storm/blobstore/word-count-1-1466489609-stormjar.jar
2016-06-21 11:49:18,450 [myid:] - INFO  [ProcessThread(sid:0 cport:2181)::PrepRequestProcessor@651] - Got user-level KeeperException when processing sessionid:0x155714cef810017 type:delete cxid:0x74 zxid:0x26211 txntype:-1 reqpath:n/a Error Path:/storm/blobstore/word-count-1-1466489609-stormconf.ser Error:KeeperErrorCode = Directory not empty for /storm/blobstore/word-count-1-1466489609-stormconf.ser
2016-06-21 12:18:46,954 [myid:] - INFO  [NIOServerCxn.Factory:0.0.0.0/0.0.0.0:2181:NIOServerCnxnFactory@192] - Accepted socket connection from /127.0.0.1:58697
2016-06-21 12:18:46,954 [myid:] - INFO  [NIOServerCxn.Factory:0.0.0.0/0.0.0.0:2181:ZooKeeperServer@900] - Client attempting to establish new session at /127.0.0.1:58697
2016-06-21 12:18:47,861 [myid:] - INFO  [SyncThread:0:ZooKeeperServer@645] - Established session 0x155714cef81001d with negotiated timeout 20000 for client /127.0.0.1:58697
2016-06-21 12:18:47,868 [myid:] - INFO  [ProcessThread(sid:0 cport:2181)::PrepRequestProcessor@489] - Processed session termination for sessionid: 0x155714cef81001d
2016-06-21 12:18:47,895 [myid:] - INFO  [NIOServerCxn.Factory:0.0.0.0/0.0.0.0:2181:NIOServerCnxn@1008] - Closed socket connection for client /127.0.0.1:58697 which had sessionid 0x155714cef81001d
2016-06-21 12:18:47,939 [myid:] - INFO  [NIOServerCxn.Factory:0.0.0.0/0.0.0.0:2181:NIOServerCnxnFactory@192] - Accepted socket connection from /127.0.0.1:58698
2016-06-21 12:18:47,940 [myid:] - INFO  [NIOServerCxn.Factory:0.0.0.0/0.0.0.0:2181:ZooKeeperServer@900] - Client attempting to establish new session at /127.0.0.1:58698
2016-06-21 12:18:47,943 [myid:] - INFO  [SyncThread:0:ZooKeeperServer@645] - Established session 0x155714cef81001e with negotiated timeout 20000 for client /127.0.0.1:58698
2016-06-21 12:18:47,955 [myid:] - INFO  [ProcessThread(sid:0 cport:2181)::PrepRequestProcessor@489] - Processed session termination for sessionid: 0x155714cef81001e
2016-06-21 12:18:47,963 [myid:] - INFO  [NIOServerCxn.Factory:0.0.0.0/0.0.0.0:2181:NIOServerCnxn@1008] - Closed socket connection for client /127.0.0.1:58698 which had sessionid 0x155714cef81001e
2016-06-21 12:18:47,977 [myid:] - INFO  [NIOServerCxn.Factory:0.0.0.0/0.0.0.0:2181:NIOServerCnxnFactory@192] - Accepted socket connection from /127.0.0.1:58699
2016-06-21 12:18:47,977 [myid:] - INFO  [NIOServerCxn.Factory:0.0.0.0/0.0.0.0:2181:ZooKeeperServer@900] - Client attempting to establish new session at /127.0.0.1:58699
2016-06-21 12:18:47,980 [myid:] - INFO  [SyncThread:0:ZooKeeperServer@645] - Established session 0x155714cef81001f with negotiated timeout 20000 for client /127.0.0.1:58699
2016-06-21 12:18:47,987 [myid:] - INFO  [ProcessThread(sid:0 cport:2181)::PrepRequestProcessor@489] - Processed session termination for sessionid: 0x155714cef81001f
2016-06-21 12:18:48,010 [myid:] - INFO  [NIOServerCxn.Factory:0.0.0.0/0.0.0.0:2181:NIOServerCnxn@1008] - Closed socket connection for client /127.0.0.1:58699 which had sessionid 0x155714cef81001f
2016-06-21 12:19:54,364 [myid:] - INFO  [ProcessThread(sid:0 cport:2181)::PrepRequestProcessor@651] - Got user-level KeeperException when processing sessionid:0x155714cef810017 type:delete cxid:0xb1 zxid:0x26230 txntype:-1 reqpath:n/a Error Path:/storm/blobstore/word-count-2-1466491726-stormcode.ser Error:KeeperErrorCode = Directory not empty for /storm/blobstore/word-count-2-1466491726-stormcode.ser
2016-06-21 12:19:54,375 [myid:] - INFO  [ProcessThread(sid:0 cport:2181)::PrepRequestProcessor@651] - Got user-level KeeperException when processing sessionid:0x155714cef810017 type:delete cxid:0xb9 zxid:0x26234 txntype:-1 reqpath:n/a Error Path:/storm/blobstore/word-count-2-1466491726-stormjar.jar Error:KeeperErrorCode = Directory not empty for /storm/blobstore/word-count-2-1466491726-stormjar.jar
2016-06-21 12:19:54,387 [myid:] - INFO  [ProcessThread(sid:0 cport:2181)::PrepRequestProcessor@651] - Got user-level KeeperException when processing sessionid:0x155714cef810017 type:delete cxid:0xc1 zxid:0x26238 txntype:-1 reqpath:n/a Error Path:/storm/blobstore/word-count-2-1466491726-stormconf.ser Error:KeeperErrorCode = Directory not empty for /storm/blobstore/word-count-2-1466491726-stormconf.ser
2016-06-21 12:25:23,953 [myid:] - INFO  [NIOServerCxn.Factory:0.0.0.0/0.0.0.0:2181:NIOServerCnxnFactory@192] - Accepted socket connection from /127.0.0.1:58842
2016-06-21 12:25:23,954 [myid:] - INFO  [NIOServerCxn.Factory:0.0.0.0/0.0.0.0:2181:ZooKeeperServer@900] - Client attempting to establish new session at /127.0.0.1:58842
2016-06-21 12:25:24,882 [myid:] - INFO  [SyncThread:0:ZooKeeperServer@645] - Established session 0x155714cef810020 with negotiated timeout 20000 for client /127.0.0.1:58842
2016-06-21 12:25:24,965 [myid:] - INFO  [ProcessThread(sid:0 cport:2181)::PrepRequestProcessor@489] - Processed session termination for sessionid: 0x155714cef810020
2016-06-21 12:25:24,968 [myid:] - INFO  [NIOServerCxn.Factory:0.0.0.0/0.0.0.0:2181:NIOServerCnxn@1008] - Closed socket connection for client /127.0.0.1:58842 which had sessionid 0x155714cef810020
2016-06-21 12:25:24,990 [myid:] - INFO  [NIOServerCxn.Factory:0.0.0.0/0.0.0.0:2181:NIOServerCnxnFactory@192] - Accepted socket connection from /127.0.0.1:58843
2016-06-21 12:25:24,991 [myid:] - INFO  [NIOServerCxn.Factory:0.0.0.0/0.0.0.0:2181:ZooKeeperServer@900] - Client attempting to establish new session at /127.0.0.1:58843
2016-06-21 12:25:24,993 [myid:] - INFO  [SyncThread:0:ZooKeeperServer@645] - Established session 0x155714cef810021 with negotiated timeout 20000 for client /127.0.0.1:58843
2016-06-21 12:25:24,999 [myid:] - INFO  [ProcessThread(sid:0 cport:2181)::PrepRequestProcessor@489] - Processed session termination for sessionid: 0x155714cef810021
2016-06-21 12:25:25,001 [myid:] - INFO  [NIOServerCxn.Factory:0.0.0.0/0.0.0.0:2181:NIOServerCnxn@1008] - Closed socket connection for client /127.0.0.1:58843 which had sessionid 0x155714cef810021
2016-06-21 12:25:25,019 [myid:] - INFO  [NIOServerCxn.Factory:0.0.0.0/0.0.0.0:2181:NIOServerCnxnFactory@192] - Accepted socket connection from /127.0.0.1:58844
2016-06-21 12:25:25,019 [myid:] - INFO  [NIOServerCxn.Factory:0.0.0.0/0.0.0.0:2181:ZooKeeperServer@900] - Client attempting to establish new session at /127.0.0.1:58844
2016-06-21 12:25:25,022 [myid:] - INFO  [SyncThread:0:ZooKeeperServer@645] - Established session 0x155714cef810022 with negotiated timeout 20000 for client /127.0.0.1:58844
2016-06-21 12:25:25,029 [myid:] - INFO  [ProcessThread(sid:0 cport:2181)::PrepRequestProcessor@489] - Processed session termination for sessionid: 0x155714cef810022
2016-06-21 12:25:25,031 [myid:] - INFO  [NIOServerCxn.Factory:0.0.0.0/0.0.0.0:2181:NIOServerCnxn@1008] - Closed socket connection for client /127.0.0.1:58844 which had sessionid 0x155714cef810022
2016-06-21 12:30:31,402 [myid:] - INFO  [ProcessThread(sid:0 cport:2181)::PrepRequestProcessor@651] - Got user-level KeeperException when processing sessionid:0x155714cef810017 type:delete cxid:0xfe zxid:0x26257 txntype:-1 reqpath:n/a Error Path:/storm/blobstore/perl_topology-3-1466492123-stormcode.ser Error:KeeperErrorCode = Directory not empty for /storm/blobstore/perl_topology-3-1466492123-stormcode.ser
2016-06-21 12:30:31,416 [myid:] - INFO  [ProcessThread(sid:0 cport:2181)::PrepRequestProcessor@651] - Got user-level KeeperException when processing sessionid:0x155714cef810017 type:delete cxid:0x106 zxid:0x2625b txntype:-1 reqpath:n/a Error Path:/storm/blobstore/perl_topology-3-1466492123-stormjar.jar Error:KeeperErrorCode = Directory not empty for /storm/blobstore/perl_topology-3-1466492123-stormjar.jar
2016-06-21 12:30:31,426 [myid:] - INFO  [ProcessThread(sid:0 cport:2181)::PrepRequestProcessor@651] - Got user-level KeeperException when processing sessionid:0x155714cef810017 type:delete cxid:0x10e zxid:0x2625f txntype:-1 reqpath:n/a Error Path:/storm/blobstore/perl_topology-3-1466492123-stormconf.ser Error:KeeperErrorCode = Directory not empty for /storm/blobstore/perl_topology-3-1466492123-stormconf.ser
2016-06-21 12:38:16,868 [myid:] - INFO  [NIOServerCxn.Factory:0.0.0.0/0.0.0.0:2181:NIOServerCnxnFactory@192] - Accepted socket connection from /127.0.0.1:59150
2016-06-21 12:38:16,868 [myid:] - INFO  [NIOServerCxn.Factory:0.0.0.0/0.0.0.0:2181:ZooKeeperServer@900] - Client attempting to establish new session at /127.0.0.1:59150
2016-06-21 12:38:17,689 [myid:] - INFO  [SyncThread:0:ZooKeeperServer@645] - Established session 0x155714cef810023 with negotiated timeout 20000 for client /127.0.0.1:59150
2016-06-21 12:38:17,695 [myid:] - INFO  [ProcessThread(sid:0 cport:2181)::PrepRequestProcessor@489] - Processed session termination for sessionid: 0x155714cef810023
2016-06-21 12:38:17,765 [myid:] - INFO  [NIOServerCxn.Factory:0.0.0.0/0.0.0.0:2181:NIOServerCnxn@1008] - Closed socket connection for client /127.0.0.1:59150 which had sessionid 0x155714cef810023
2016-06-21 12:38:17,794 [myid:] - INFO  [NIOServerCxn.Factory:0.0.0.0/0.0.0.0:2181:NIOServerCnxnFactory@192] - Accepted socket connection from /127.0.0.1:59152
2016-06-21 12:38:17,794 [myid:] - INFO  [NIOServerCxn.Factory:0.0.0.0/0.0.0.0:2181:ZooKeeperServer@900] - Client attempting to establish new session at /127.0.0.1:59152
2016-06-21 12:38:17,796 [myid:] - INFO  [SyncThread:0:ZooKeeperServer@645] - Established session 0x155714cef810024 with negotiated timeout 20000 for client /127.0.0.1:59152
2016-06-21 12:38:17,803 [myid:] - INFO  [ProcessThread(sid:0 cport:2181)::PrepRequestProcessor@489] - Processed session termination for sessionid: 0x155714cef810024
2016-06-21 12:38:17,806 [myid:] - INFO  [NIOServerCxn.Factory:0.0.0.0/0.0.0.0:2181:NIOServerCnxn@1008] - Closed socket connection for client /127.0.0.1:59152 which had sessionid 0x155714cef810024
2016-06-21 12:38:17,818 [myid:] - INFO  [NIOServerCxn.Factory:0.0.0.0/0.0.0.0:2181:NIOServerCnxnFactory@192] - Accepted socket connection from /127.0.0.1:59153
2016-06-21 12:38:17,819 [myid:] - INFO  [NIOServerCxn.Factory:0.0.0.0/0.0.0.0:2181:ZooKeeperServer@900] - Client attempting to establish new session at /127.0.0.1:59153
2016-06-21 12:38:17,821 [myid:] - INFO  [SyncThread:0:ZooKeeperServer@645] - Established session 0x155714cef810025 with negotiated timeout 20000 for client /127.0.0.1:59153
2016-06-21 12:38:17,830 [myid:] - INFO  [ProcessThread(sid:0 cport:2181)::PrepRequestProcessor@489] - Processed session termination for sessionid: 0x155714cef810025
2016-06-21 12:38:17,850 [myid:] - INFO  [NIOServerCxn.Factory:0.0.0.0/0.0.0.0:2181:NIOServerCnxn@1008] - Closed socket connection for client /127.0.0.1:59153 which had sessionid 0x155714cef810025
